{
	"TYPE": "CONSOLE",
	"sequences": {
		"next": {
			"message": "",
			"sequence": [
                1, 
				1,
				1
			],
			"cpt_seq": 0,
			"action": "NEXT",
			"type": "INTERACT"
		},
		"next_config": {
			"message": "",
			"sequence": [
				0,
				1,
				0,
				1
			],
			"cpt_seq": 0,
			"action": "NEXT_CONFIG",
			"type": "INTERACT"
		}
	}
}

	
