{
	"01": {
		"FICHIER": "one.wav",
		"TYPE": "FILE"
	},
	"02": {
		"FICHIER": "two.wav",
		"TYPE": "FILE"
	},
	"03": {
		"FICHIER": "three.wav",
		"TYPE": "FILE"
	},
	"04": {
		"FICHIER": "accuracy.wav",
		"TYPE": "FILE"
	},
	"05": {
		"FICHIER": "denied.wav",
		"TYPE": "FILE"
	},
	"06": {
		"FICHIER": "excellent_a.wav",
		"TYPE": "FILE"
	},
	"07": {
		"FICHIER": "impressive_a.wav",
		"TYPE": "FILE"
	},
	"08": {
		"FICHIER": "intro_01.wav",
		"TYPE": "FILE"
	},
	"09": {
		"FICHIER": "perfect.wav",
		"TYPE": "FILE"
	}
}